phi: TORSION ATOMS=5,7,9,15
psi: TORSION ATOMS=7,9,15,17

#b1: COMBINE ARG=phi POWERS=1 COEFFICIENTS=0 PERIODIC=NO
#b2: COMBINE ARG=psi POWERS=1 COEFFICIENTS=0 PERIODIC=NO
#bis: BIASVALUE ARG=b1,b2


#supply values of CVs from other replicas
a1: COMBINE ARG=phi POWERS=0 COEFFICIENTS=-2.549089 PERIODIC=NO
b1: COMBINE ARG=phi POWERS=0 COEFFICIENTS=-0.878860 PERIODIC=NO
a2: COMBINE ARG=phi POWERS=0 COEFFICIENTS=-2.358027 PERIODIC=NO
b2: COMBINE ARG=phi POWERS=0 COEFFICIENTS=-1.009600 PERIODIC=NO
a3: COMBINE ARG=phi POWERS=0 COEFFICIENTS=-2.211646 PERIODIC=NO
b3: COMBINE ARG=phi POWERS=0 COEFFICIENTS=-1.098385 PERIODIC=NO
a4: COMBINE ARG=phi POWERS=0 COEFFICIENTS=-2.195786 PERIODIC=NO
b4: COMBINE ARG=phi POWERS=0 COEFFICIENTS=-1.204543 PERIODIC=NO
a5: COMBINE ARG=phi POWERS=0 COEFFICIENTS=-2.072561 PERIODIC=NO
b5: COMBINE ARG=phi POWERS=0 COEFFICIENTS=-0.991069 PERIODIC=NO
a6: COMBINE ARG=phi POWERS=0 COEFFICIENTS=-1.898021 PERIODIC=NO
b6: COMBINE ARG=phi POWERS=0 COEFFICIENTS=-1.114203 PERIODIC=NO
a7: COMBINE ARG=phi POWERS=0 COEFFICIENTS=-1.748028 PERIODIC=NO
b7: COMBINE ARG=phi POWERS=0 COEFFICIENTS=-1.239457 PERIODIC=NO
a8: COMBINE ARG=phi POWERS=0 COEFFICIENTS=-2.171009 PERIODIC=NO
b8: COMBINE ARG=phi POWERS=0 COEFFICIENTS=-1.273510 PERIODIC=NO
a9: COMBINE ARG=phi POWERS=0 COEFFICIENTS=-2.311103 PERIODIC=NO
b9: COMBINE ARG=phi POWERS=0 COEFFICIENTS=-1.221138 PERIODIC=NO
a10: COMBINE ARG=phi POWERS=0 COEFFICIENTS=-2.374297 PERIODIC=NO
b10: COMBINE ARG=phi POWERS=0 COEFFICIENTS=-0.973719 PERIODIC=NO
a11: COMBINE ARG=phi POWERS=0 COEFFICIENTS=-2.511798 PERIODIC=NO
b11: COMBINE ARG=phi POWERS=0 COEFFICIENTS=-0.852507 PERIODIC=NO
a12: COMBINE ARG=phi POWERS=0 COEFFICIENTS=-2.394201 PERIODIC=NO
b12: COMBINE ARG=phi POWERS=0 COEFFICIENTS=-0.760574 PERIODIC=NO
a13: COMBINE ARG=phi POWERS=0 COEFFICIENTS=-2.338490 PERIODIC=NO
b13: COMBINE ARG=phi POWERS=0 COEFFICIENTS=-0.951674 PERIODIC=NO
a14: COMBINE ARG=phi POWERS=0 COEFFICIENTS=-2.106122 PERIODIC=NO
b14: COMBINE ARG=phi POWERS=0 COEFFICIENTS=-1.029306 PERIODIC=NO
a15: COMBINE ARG=phi POWERS=0 COEFFICIENTS=-2.094593 PERIODIC=NO
b15: COMBINE ARG=phi POWERS=0 COEFFICIENTS=-1.076570 PERIODIC=NO
a16: COMBINE ARG=phi POWERS=0 COEFFICIENTS=-2.020998 PERIODIC=NO
b16: COMBINE ARG=phi POWERS=0 COEFFICIENTS=-1.149437 PERIODIC=NO
a17: COMBINE ARG=phi POWERS=0 COEFFICIENTS=-2.043935 PERIODIC=NO
b17: COMBINE ARG=phi POWERS=0 COEFFICIENTS=-1.394116 PERIODIC=NO
a18: COMBINE ARG=phi POWERS=0 COEFFICIENTS=-2.219898 PERIODIC=NO
b18: COMBINE ARG=phi POWERS=0 COEFFICIENTS=-1.337490 PERIODIC=NO
a19: COMBINE ARG=phi POWERS=0 COEFFICIENTS=-2.108865 PERIODIC=NO
b19: COMBINE ARG=phi POWERS=0 COEFFICIENTS=-1.183141 PERIODIC=NO


#calculate difference with each replica in each dimension
dphi1: COMBINE ARG=phi,a1 POWERS=1,1 COEFFICIENTS=1,-1 PERIODIC=-3.14,3.14
dpsi1: COMBINE ARG=psi,b1 POWERS=1,1 COEFFICIENTS=1,-1 PERIODIC=-3.14,3.14

dphi2: COMBINE ARG=phi,a2 POWERS=1,1 COEFFICIENTS=1,-1 PERIODIC=-3.14,3.14
dpsi2: COMBINE ARG=psi,b2 POWERS=1,1 COEFFICIENTS=1,-1 PERIODIC=-3.14,3.14

dphi3: COMBINE ARG=phi,a3 POWERS=1,1 COEFFICIENTS=1,-1 PERIODIC=-3.14,3.14
dpsi3: COMBINE ARG=psi,b3 POWERS=1,1 COEFFICIENTS=1,-1 PERIODIC=-3.14,3.14
dphi4: COMBINE ARG=phi,a4 POWERS=1,1 COEFFICIENTS=1,-1 PERIODIC=-3.14,3.14
dpsi4: COMBINE ARG=psi,b4 POWERS=1,1 COEFFICIENTS=1,-1 PERIODIC=-3.14,3.14
dphi5: COMBINE ARG=phi,a5 POWERS=1,1 COEFFICIENTS=1,-1 PERIODIC=-3.14,3.14
dpsi5: COMBINE ARG=psi,b5 POWERS=1,1 COEFFICIENTS=1,-1 PERIODIC=-3.14,3.14
dphi6: COMBINE ARG=phi,a6 POWERS=1,1 COEFFICIENTS=1,-1 PERIODIC=-3.14,3.14
dpsi6: COMBINE ARG=psi,b6 POWERS=1,1 COEFFICIENTS=1,-1 PERIODIC=-3.14,3.14
dphi7: COMBINE ARG=phi,a7 POWERS=1,1 COEFFICIENTS=1,-1 PERIODIC=-3.14,3.14
dpsi7: COMBINE ARG=psi,b7 POWERS=1,1 COEFFICIENTS=1,-1 PERIODIC=-3.14,3.14
dphi8: COMBINE ARG=phi,a8 POWERS=1,1 COEFFICIENTS=1,-1 PERIODIC=-3.14,3.14
dpsi8: COMBINE ARG=psi,b8 POWERS=1,1 COEFFICIENTS=1,-1 PERIODIC=-3.14,3.14
dphi9: COMBINE ARG=phi,a9 POWERS=1,1 COEFFICIENTS=1,-1 PERIODIC=-3.14,3.14
dpsi9: COMBINE ARG=psi,b9 POWERS=1,1 COEFFICIENTS=1,-1 PERIODIC=-3.14,3.14
dphi10: COMBINE ARG=phi,a10 POWERS=1,1 COEFFICIENTS=1,-1 PERIODIC=-3.14,3.14
dpsi10: COMBINE ARG=psi,b10 POWERS=1,1 COEFFICIENTS=1,-1 PERIODIC=-3.14,3.14
dphi11: COMBINE ARG=phi,a11 POWERS=1,1 COEFFICIENTS=1,-1 PERIODIC=-3.14,3.14
dpsi11: COMBINE ARG=psi,b11 POWERS=1,1 COEFFICIENTS=1,-1 PERIODIC=-3.14,3.14
dphi12: COMBINE ARG=phi,a12 POWERS=1,1 COEFFICIENTS=1,-1 PERIODIC=-3.14,3.14
dpsi12: COMBINE ARG=psi,b12 POWERS=1,1 COEFFICIENTS=1,-1 PERIODIC=-3.14,3.14
dphi13: COMBINE ARG=phi,a13 POWERS=1,1 COEFFICIENTS=1,-1 PERIODIC=-3.14,3.14
dpsi13: COMBINE ARG=psi,b13 POWERS=1,1 COEFFICIENTS=1,-1 PERIODIC=-3.14,3.14
dphi14: COMBINE ARG=phi,a14 POWERS=1,1 COEFFICIENTS=1,-1 PERIODIC=-3.14,3.14
dpsi14: COMBINE ARG=psi,b14 POWERS=1,1 COEFFICIENTS=1,-1 PERIODIC=-3.14,3.14
dphi15: COMBINE ARG=phi,a15 POWERS=1,1 COEFFICIENTS=1,-1 PERIODIC=-3.14,3.14
dpsi15: COMBINE ARG=psi,b15 POWERS=1,1 COEFFICIENTS=1,-1 PERIODIC=-3.14,3.14
dphi16: COMBINE ARG=phi,a16 POWERS=1,1 COEFFICIENTS=1,-1 PERIODIC=-3.14,3.14
dpsi16: COMBINE ARG=psi,b16 POWERS=1,1 COEFFICIENTS=1,-1 PERIODIC=-3.14,3.14
dphi17: COMBINE ARG=phi,a17 POWERS=1,1 COEFFICIENTS=1,-1 PERIODIC=-3.14,3.14
dpsi17: COMBINE ARG=psi,b17 POWERS=1,1 COEFFICIENTS=1,-1 PERIODIC=-3.14,3.14
dphi18: COMBINE ARG=phi,a18 POWERS=1,1 COEFFICIENTS=1,-1 PERIODIC=-3.14,3.14
dpsi18: COMBINE ARG=psi,b18 POWERS=1,1 COEFFICIENTS=1,-1 PERIODIC=-3.14,3.14
dphi19: COMBINE ARG=phi,a19 POWERS=1,1 COEFFICIENTS=1,-1 PERIODIC=-3.14,3.14
dpsi19: COMBINE ARG=psi,b19 POWERS=1,1 COEFFICIENTS=1,-1 PERIODIC=-3.14,3.14


#calculate sum of sequres of distances
ds1: COMBINE ARG=dphi1,dpsi1 POWERS=2,2 PERIODIC=NO
#calculate root of this sum
dis1: COMBINE ARG=ds1 POWERS=0.5 PERIODIC=NO

#ditto
ds2: COMBINE ARG=dphi2,dpsi2 POWERS=2,2 PERIODIC=NO
dis2: COMBINE ARG=ds2 POWERS=0.5 PERIODIC=NO

ds3: COMBINE ARG=dphi3,dpsi3 POWERS=2,2 PERIODIC=NO
dis3: COMBINE ARG=ds3 POWERS=0.5 PERIODIC=NO

ds4: COMBINE ARG=dphi4,dpsi4 POWERS=2,2 PERIODIC=NO
dis4: COMBINE ARG=ds4 POWERS=0.5 PERIODIC=NO

ds5: COMBINE ARG=dphi5,dpsi5 POWERS=2,2 PERIODIC=NO
dis5: COMBINE ARG=ds5 POWERS=0.5 PERIODIC=NO

ds6: COMBINE ARG=dphi6,dpsi6 POWERS=2,2 PERIODIC=NO
dis6: COMBINE ARG=ds6 POWERS=0.5 PERIODIC=NO

ds7: COMBINE ARG=dphi7,dpsi7 POWERS=2,2 PERIODIC=NO
dis7: COMBINE ARG=ds7 POWERS=0.5 PERIODIC=NO

ds8: COMBINE ARG=dphi8,dpsi8 POWERS=2,2 PERIODIC=NO
dis8: COMBINE ARG=ds8 POWERS=0.5 PERIODIC=NO

ds9: COMBINE ARG=dphi9,dpsi9 POWERS=2,2 PERIODIC=NO
dis9: COMBINE ARG=ds9 POWERS=0.5 PERIODIC=NO

ds10: COMBINE ARG=dphi10,dpsi10 POWERS=2,2 PERIODIC=NO
dis10: COMBINE ARG=ds10 POWERS=0.5 PERIODIC=NO

ds11: COMBINE ARG=dphi11,dpsi11 POWERS=2,2 PERIODIC=NO
dis11: COMBINE ARG=ds11 POWERS=0.5 PERIODIC=NO

ds12: COMBINE ARG=dphi12,dpsi12 POWERS=2,2 PERIODIC=NO
dis12: COMBINE ARG=ds12 POWERS=0.5 PERIODIC=NO

ds13: COMBINE ARG=dphi13,dpsi13 POWERS=2,2 PERIODIC=NO
dis13: COMBINE ARG=ds13 POWERS=0.5 PERIODIC=NO

ds14: COMBINE ARG=dphi14,dpsi14 POWERS=2,2 PERIODIC=NO
dis14: COMBINE ARG=ds14 POWERS=0.5 PERIODIC=NO

ds15: COMBINE ARG=dphi15,dpsi15 POWERS=2,2 PERIODIC=NO
dis15: COMBINE ARG=ds15 POWERS=0.5 PERIODIC=NO

ds16: COMBINE ARG=dphi16,dpsi16 POWERS=2,2 PERIODIC=NO
dis16: COMBINE ARG=ds16 POWERS=0.5 PERIODIC=NO

ds17: COMBINE ARG=dphi17,dpsi17 POWERS=2,2 PERIODIC=NO
dis17: COMBINE ARG=ds17 POWERS=0.5 PERIODIC=NO

ds18: COMBINE ARG=dphi18,dpsi18 POWERS=2,2 PERIODIC=NO
dis18: COMBINE ARG=ds18 POWERS=0.5 PERIODIC=NO

ds19: COMBINE ARG=dphi19,dpsi19 POWERS=2,2 PERIODIC=NO
dis19: COMBINE ARG=ds19 POWERS=0.5 PERIODIC=NO

#express d_0 as a constant
d0: COMBINE ARG=phi POWERS=0 COEFFICIENTS=1 PERIODIC=NO

#compute the sums
dis1c: COMBINE ARG=dis1,d0 POWERS=1,1 PERIODIC=NO
dis2c: COMBINE ARG=dis2,d0 POWERS=1,1 PERIODIC=NO
dis3c: COMBINE ARG=dis3,d0 POWERS=1,1 PERIODIC=NO
dis4c: COMBINE ARG=dis4,d0 POWERS=1,1 PERIODIC=NO
dis5c: COMBINE ARG=dis5,d0 POWERS=1,1 PERIODIC=NO
dis6c: COMBINE ARG=dis6,d0 POWERS=1,1 PERIODIC=NO
dis7c: COMBINE ARG=dis7,d0 POWERS=1,1 PERIODIC=NO
dis8c: COMBINE ARG=dis8,d0 POWERS=1,1 PERIODIC=NO
dis9c: COMBINE ARG=dis9,d0 POWERS=1,1 PERIODIC=NO
dis10c: COMBINE ARG=dis10,d0 POWERS=1,1 PERIODIC=NO
dis11c: COMBINE ARG=dis11,d0 POWERS=1,1 PERIODIC=NO
dis12c: COMBINE ARG=dis12,d0 POWERS=1,1 PERIODIC=NO
dis13c: COMBINE ARG=dis13,d0 POWERS=1,1 PERIODIC=NO
dis14c: COMBINE ARG=dis14,d0 POWERS=1,1 PERIODIC=NO
dis15c: COMBINE ARG=dis15,d0 POWERS=1,1 PERIODIC=NO
dis16c: COMBINE ARG=dis16,d0 POWERS=1,1 PERIODIC=NO
dis17c: COMBINE ARG=dis17,d0 POWERS=1,1 PERIODIC=NO
dis18c: COMBINE ARG=dis18,d0 POWERS=1,1 PERIODIC=NO
dis19c: COMBINE ARG=dis19,d0 POWERS=1,1 PERIODIC=NO

#invert the sum and multiple by k
dis1cs: COMBINE ARG=dis1c POWERS=-2 COEFFICIENTS=0 PERIODIC=NO
dis2cs: COMBINE ARG=dis2c POWERS=-2 COEFFICIENTS=0 PERIODIC=NO
dis3cs: COMBINE ARG=dis3c POWERS=-2 COEFFICIENTS=0 PERIODIC=NO
dis4cs: COMBINE ARG=dis4c POWERS=-2 COEFFICIENTS=0 PERIODIC=NO
dis5cs: COMBINE ARG=dis5c POWERS=-2 COEFFICIENTS=0 PERIODIC=NO
dis6cs: COMBINE ARG=dis6c POWERS=-2 COEFFICIENTS=0 PERIODIC=NO
dis7cs: COMBINE ARG=dis7c POWERS=-2 COEFFICIENTS=0 PERIODIC=NO
dis8cs: COMBINE ARG=dis8c POWERS=-2 COEFFICIENTS=0 PERIODIC=NO
dis9cs: COMBINE ARG=dis9c POWERS=-2 COEFFICIENTS=0 PERIODIC=NO
dis10cs: COMBINE ARG=dis10c POWERS=-2 COEFFICIENTS=0 PERIODIC=NO
dis11cs: COMBINE ARG=dis11c POWERS=-2 COEFFICIENTS=0 PERIODIC=NO
dis12cs: COMBINE ARG=dis12c POWERS=-2 COEFFICIENTS=0 PERIODIC=NO
dis13cs: COMBINE ARG=dis13c POWERS=-2 COEFFICIENTS=0 PERIODIC=NO
dis14cs: COMBINE ARG=dis14c POWERS=-2 COEFFICIENTS=0 PERIODIC=NO
dis15cs: COMBINE ARG=dis15c POWERS=-2 COEFFICIENTS=0 PERIODIC=NO
dis16cs: COMBINE ARG=dis16c POWERS=-2 COEFFICIENTS=0 PERIODIC=NO
dis17cs: COMBINE ARG=dis17c POWERS=-2 COEFFICIENTS=0 PERIODIC=NO
dis18cs: COMBINE ARG=dis18c POWERS=-2 COEFFICIENTS=0 PERIODIC=NO
dis19cs: COMBINE ARG=dis19c POWERS=-2 COEFFICIENTS=0 PERIODIC=NO

#supply bias
bis: BIASVALUE ARG=dis1cs,dis2cs,dis3cs,dis4cs,dis5cs,dis6cs,dis7cs,dis8cs,dis9cs,dis10cs,dis11cs,dis12cs,dis13cs,dis14cs,dis15cs,dis16cs,dis17cs,dis18cs,dis19cs 

# monitor the two variables and the bias potential from the two restraints
ENERGY LABEL=ene
PRINT STRIDE=10 ARG=bis.bias,ene,phi,psi FILE=COLVAR
